{
    "alt-speed-down": 50,
    "alt-speed-enabled": false,
    "alt-speed-time-begin": 540,
    "alt-speed-time-day": 127,
    "alt-speed-time-enabled": false,
    "alt-speed-time-end": 1020,
    "alt-speed-up": 50,
    "blocklist-date": 0,
    "blocklist-enabled": false,
    "blocklist-updates-enabled": true,
    "blocklist-url": "http://www.example.com/blocklist",
    "compact-view": false,
    "dht-enabled": true,
    "download-dir": "/home/archyve/Downloads",
    "download-queue-enabled": true,
    "download-queue-size": 5,
    "encryption": 1,
    "filter-mode": "show-all",
    "filter-trackers": "",
    "idle-seeding-limit": 30,
    "idle-seeding-limit-enabled": false,
    "incomplete-dir": "/home/archyve/Downloads",
    "incomplete-dir-enabled": false,
    "inhibit-desktop-hibernation": false,
    "lpd-enabled": false,
    "main-window-height": 614,
    "main-window-layout-order": "menu,toolbar,filter,list,statusbar",
    "main-window-width": 445,
    "main-window-x": 907,
    "main-window-y": 213,
    "message-level": 2,
    "open-dialog-dir": "/home/archyve",
    "peer-limit-global": 200,
    "peer-limit-per-torrent": 50,
    "peer-port": 51413,
    "peer-port-random-high": 65535,
    "peer-port-random-low": 49152,
    "peer-port-random-on-start": false,
    "peer-socket-tos": 0,
    "pex-enabled": true,
    "port-forwarding-enabled": true,
    "preallocation": 1,
    "prompt-before-exit": true,
    "queue-stalled-minutes": 30,
    "ratio-limit": 2,
    "ratio-limit-enabled": false,
    "remote-session-enabled": false,
    "remote-session-host": "localhost",
    "remote-session-password": "",
    "remote-session-port": 9091,
    "remote-session-requres-authentication": false,
    "remote-session-username": "",
    "rename-partial-files": true,
    "rpc-authentication-required": false,
    "rpc-enabled": false,
    "rpc-password": "{df004245e93ac5816d7a42cc059ad6a897a3e693K8.qIhn9",
    "rpc-port": 9091,
    "rpc-username": "",
    "rpc-whitelist": "127.0.0.1,::1",
    "rpc-whitelist-enabled": true,
    "script-torrent-done-enabled": false,
    "script-torrent-done-filename": "",
    "show-backup-trackers": false,
    "show-extra-peer-details": false,
    "show-filterbar": true,
    "show-notification-area-icon": false,
    "show-options-window": true,
    "show-statusbar": true,
    "show-toolbar": true,
    "sort-mode": "sort-by-name",
    "sort-reversed": false,
    "speed-limit-down": 100,
    "speed-limit-down-enabled": false,
    "speed-limit-up": 100,
    "speed-limit-up-enabled": false,
    "start-added-torrents": true,
    "start-minimized": false,
    "statusbar-stats": "total-ratio",
    "torrent-added-notification-enabled": true,
    "torrent-complete-notification-enabled": true,
    "torrent-complete-sound-command": "canberra-gtk-play -i complete-download -d 'transmission torrent downloaded'",
    "torrent-complete-sound-enabled": true,
    "trash-original-torrent-files": false,
    "upload-slots-per-torrent": 14,
    "user-has-given-informed-consent": true,
    "utp-enabled": true,
    "watch-dir": "/home/archyve/Downloads",
    "watch-dir-enabled": false
}
