00:00:00.328588 VirtualBox GUI VM Selector Window 6.1.30 r148432 linux.amd64 (Dec 10 2021 19:46:42) release log
00:00:00.328592 Log opened 2021-12-23T14:19:55.957052000Z
00:00:00.328594 Build Type: release
00:00:00.328597 OS Product: Linux
00:00:00.328600 OS Release: 5.10.88-1-lts
00:00:00.328602 OS Version: #1 SMP Wed, 22 Dec 2021 09:16:29 +0000
00:00:00.328623 DMI Product Name: 20T8000LCK
00:00:00.328631 DMI Product Version: ThinkPad E15 Gen 2
00:00:00.328637 Firmware type: UEFI
00:00:00.328847 Secure Boot: Disabled
00:00:00.328889 Host RAM: 7233MB (7.0GB) total, 4819MB (4.7GB) available
00:00:00.328893 Executable: /usr/lib/virtualbox/VirtualBox
00:00:00.328895 Process ID: 14668
00:00:00.328897 Package type: LINUX_64BITS_GENERIC (OSE)
00:00:00.328927 Qt version: 5.15.2
00:00:00.367582 GUI: UIMediumEnumerator: Medium-enumeration started...
00:00:00.759203 GUI: UIDesktopWidgetWatchdog::sltHandleHostScreenAvailableGeometryCalculated: Screen 0 work area is actually resized to: 0x0 x 1920x1039
00:00:00.777874 GUI: UIMediumEnumerator: Medium-enumeration finished!
00:01:42.761392 GUI: UIMediumEnumerator: Medium with key={{da042271-58cd-41e5-898d-a1f2e8c4412f}} created
00:01:42.870111 GUI: UIMediumEnumerator: Medium-enumeration finished!
00:01:52.154592 GUI: UIMediumEnumerator: Medium-enumeration finished!
00:01:59.980727 GUI: UIMediumEnumerator: Medium-enumeration finished!
00:02:02.997152 GUI: UIMediumEnumerator: Medium-enumeration finished!
00:02:03.052322 GUI: UIMediumEnumerator: Medium-enumeration finished!
00:16:47.440377 GUI: UIMediumEnumerator: Medium-enumeration finished!
00:16:47.491647 GUI: UIMediumEnumerator: Medium-enumeration finished!
00:16:59.748799 GUI: UIMediumEnumerator: Medium-enumeration finished!
00:16:59.800054 GUI: UIMediumEnumerator: Medium-enumeration finished!
00:17:50.397911 GUI: UIMediumEnumerator: Medium-enumeration finished!
00:17:50.443773 GUI: UIMediumEnumerator: Medium-enumeration finished!
00:17:51.612825 GUI: UIMediumEnumerator: Medium-enumeration finished!
00:17:51.663576 GUI: UIMediumEnumerator: Medium-enumeration finished!
00:17:51.737199 GUI: UIMediumEnumerator: Medium-enumeration finished!
00:17:51.787556 GUI: UIMediumEnumerator: Medium-enumeration finished!
00:17:51.874267 GUI: UIMediumEnumerator: Medium-enumeration finished!
00:17:51.919106 GUI: UIMediumEnumerator: Medium-enumeration finished!
00:17:51.983248 GUI: UIMediumEnumerator: Medium-enumeration finished!
00:17:53.709597 GUI: UIMediumEnumerator: Medium-enumeration finished!
00:17:59.633466 GUI: UIMediumEnumerator: Medium-enumeration finished!
00:17:59.820564 GUI: UIMediumEnumerator: Medium-enumeration finished!
00:17:59.911988 GUI: UIMediumEnumerator: Medium-enumeration finished!
00:18:00.095415 GUI: UIMediumEnumerator: Medium-enumeration finished!
00:18:00.159810 GUI: UIMediumEnumerator: Medium-enumeration finished!
00:18:00.359402 GUI: UIMediumEnumerator: Medium-enumeration finished!
00:18:00.426251 GUI: UIMediumEnumerator: Medium-enumeration finished!
00:18:00.446849 GUI: UIMediumEnumerator: Medium-enumeration finished!
00:18:00.533770 GUI: UIMediumEnumerator: Medium-enumeration finished!
00:31:17.850351 GUI: UIMediumEnumerator: Medium-enumeration finished!
