00:00:00.318449 VirtualBox GUI VM Selector Window 6.1.30 r148432 linux.amd64 (Nov 22 2021 19:44:56) release log
00:00:00.318452 Log opened 2021-12-12T01:33:28.777245000Z
00:00:00.318453 Build Type: release
00:00:00.318456 OS Product: Linux
00:00:00.318458 OS Release: 5.10.84-1-lts
00:00:00.318459 OS Version: #1 SMP Wed, 08 Dec 2021 10:17:01 +0000
00:00:00.318476 DMI Product Name: 20T8000LCK
00:00:00.318480 DMI Product Version: ThinkPad E15 Gen 2
00:00:00.318484 Firmware type: UEFI
00:00:00.318731 Secure Boot: Disabled
00:00:00.318759 Host RAM: 7233MB (7.0GB) total, 4215MB (4.1GB) available
00:00:00.318762 Executable: /usr/lib/virtualbox/VirtualBox
00:00:00.318764 Process ID: 22496
00:00:00.318765 Package type: LINUX_64BITS_GENERIC (OSE)
00:00:00.318791 Qt version: 5.15.2
00:00:00.355259 GUI: UIMediumEnumerator: Medium-enumeration started...
00:00:00.731306 GUI: UIDesktopWidgetWatchdog::sltHandleHostScreenAvailableGeometryCalculated: Screen 0 work area is actually resized to: 0x0 x 1920x1049
00:00:00.758762 GUI: UIMediumEnumerator: Medium-enumeration finished!
00:06:01.509185 GUI: UIMediumEnumerator: Medium-enumeration finished!
00:06:07.012170 GUI: UIMediumEnumerator: Medium-enumeration finished!
00:06:07.043329 GUI: UIMediumEnumerator: Medium-enumeration finished!
00:06:07.112695 GUI: UIMediumEnumerator: Medium-enumeration finished!
00:06:07.143843 GUI: UIMediumEnumerator: Medium-enumeration finished!
00:06:07.180050 GUI: UIMediumEnumerator: Medium-enumeration finished!
00:06:07.832375 GUI: UIMediumEnumerator: Medium-enumeration finished!
00:06:09.812062 GUI: UIMediumEnumerator: Medium-enumeration finished!
00:06:09.858811 GUI: UIMediumEnumerator: Medium-enumeration finished!
00:06:09.891400 GUI: UIMediumEnumerator: Medium-enumeration finished!
00:06:09.999172 GUI: UIMediumEnumerator: Medium-enumeration finished!
00:06:10.073915 GUI: UIMediumEnumerator: Medium-enumeration finished!
00:06:10.159276 GUI: UIMediumEnumerator: Medium-enumeration finished!
00:06:10.234966 GUI: UIMediumEnumerator: Medium-enumeration finished!
00:06:10.306685 GUI: UIMediumEnumerator: Medium-enumeration finished!
00:06:10.390116 GUI: UIMediumEnumerator: Medium-enumeration finished!
00:06:10.456017 GUI: UIMediumEnumerator: Medium-enumeration finished!
00:06:10.534283 GUI: UIMediumEnumerator: Medium-enumeration finished!
00:06:10.573567 GUI: UIMediumEnumerator: Medium-enumeration finished!
00:06:10.639944 GUI: UIMediumEnumerator: Medium-enumeration finished!
00:06:10.697023 GUI: UIMediumEnumerator: Medium-enumeration finished!
00:06:10.757892 GUI: UIMediumEnumerator: Medium-enumeration finished!
00:06:10.786127 GUI: UIMediumEnumerator: Medium-enumeration finished!
00:06:10.886406 GUI: UIMediumEnumerator: Medium-enumeration finished!
00:06:10.936735 GUI: UIMediumEnumerator: Medium-enumeration finished!
00:06:10.978229 GUI: UIMediumEnumerator: Medium-enumeration finished!
00:06:11.078837 GUI: UIMediumEnumerator: Medium-enumeration finished!
00:06:11.118481 GUI: UIMediumEnumerator: Medium-enumeration finished!
00:06:11.170611 GUI: UIMediumEnumerator: Medium-enumeration finished!
00:09:05.491620 GUI: UIMediumEnumerator: Medium-enumeration finished!
00:10:10.757319 GUI: UIMediumEnumerator: Medium-enumeration finished!
00:12:32.359392 GUI: UIMediumEnumerator: Medium-enumeration finished!
00:12:35.700939 GUI: UIMediumEnumerator: Medium-enumeration finished!
00:12:40.328525 GUI: UIMediumEnumerator: Medium-enumeration finished!
00:12:43.361963 GUI: UIMediumEnumerator: Medium-enumeration finished!
00:12:46.612193 GUI: UIMediumEnumerator: Medium-enumeration finished!
00:12:49.661097 GUI: UIMediumEnumerator: Medium-enumeration finished!
00:12:52.825759 GUI: UIMediumEnumerator: Medium-enumeration finished!
00:13:02.294142 GUI: UIMediumEnumerator: Medium-enumeration finished!
00:13:05.416540 GUI: UIMediumEnumerator: Medium-enumeration finished!
00:13:08.691229 GUI: UIMediumEnumerator: Medium-enumeration finished!
00:13:11.776611 GUI: UIMediumEnumerator: Medium-enumeration finished!
00:13:14.859782 GUI: UIMediumEnumerator: Medium-enumeration finished!
00:13:17.957677 GUI: UIMediumEnumerator: Medium-enumeration finished!
00:13:21.024379 GUI: UIMediumEnumerator: Medium-enumeration finished!
00:13:24.212245 GUI: UIMediumEnumerator: Medium-enumeration finished!
00:13:29.764101 GUI: UIMediumEnumerator: Medium-enumeration finished!
00:20:18.256302 GUI: UIMediumEnumerator: Medium-enumeration finished!
