00:00:00.337121 VirtualBox GUI VM Selector Window 6.1.30 r148432 linux.amd64 (Dec 10 2021 19:46:42) release log
00:00:00.337123 Log opened 2021-12-25T18:38:52.083228000Z
00:00:00.337125 Build Type: release
00:00:00.337127 OS Product: Linux
00:00:00.337128 OS Release: 5.10.88-1-lts
00:00:00.337130 OS Version: #1 SMP Wed, 22 Dec 2021 09:16:29 +0000
00:00:00.337148 DMI Product Name: 20T8000LCK
00:00:00.337154 DMI Product Version: ThinkPad E15 Gen 2
00:00:00.337158 Firmware type: UEFI
00:00:00.337461 Secure Boot: Disabled
00:00:00.337505 Host RAM: 7233MB (7.0GB) total, 5108MB (4.9GB) available
00:00:00.337509 Executable: /usr/lib/virtualbox/VirtualBox
00:00:00.337510 Process ID: 4174
00:00:00.337511 Package type: LINUX_64BITS_GENERIC (OSE)
00:00:00.337554 Qt version: 5.15.2
00:00:00.379147 GUI: UIMediumEnumerator: Medium-enumeration started...
00:00:00.800634 GUI: UIDesktopWidgetWatchdog::sltHandleHostScreenAvailableGeometryCalculated: Screen 0 work area is actually resized to: 0x0 x 1920x1039
00:00:00.826049 GUI: UIMediumEnumerator: Medium-enumeration finished!
