00:00:00.313402 VirtualBox GUI VM Selector Window 6.1.30 r148432 linux.amd64 (Dec 10 2021 19:46:42) release log
00:00:00.313405 Log opened 2021-12-24T12:40:45.114453000Z
00:00:00.313406 Build Type: release
00:00:00.313409 OS Product: Linux
00:00:00.313411 OS Release: 5.10.88-1-lts
00:00:00.313413 OS Version: #1 SMP Wed, 22 Dec 2021 09:16:29 +0000
00:00:00.313428 DMI Product Name: 20T8000LCK
00:00:00.313433 DMI Product Version: ThinkPad E15 Gen 2
00:00:00.313436 Firmware type: UEFI
00:00:00.313714 Secure Boot: Disabled
00:00:00.313742 Host RAM: 7233MB (7.0GB) total, 4959MB (4.8GB) available
00:00:00.313746 Executable: /usr/lib/virtualbox/VirtualBox
00:00:00.313747 Process ID: 15869
00:00:00.313748 Package type: LINUX_64BITS_GENERIC (OSE)
00:00:00.313786 Qt version: 5.15.2
00:00:00.351516 GUI: UIMediumEnumerator: Medium-enumeration started...
00:00:00.731963 GUI: UIDesktopWidgetWatchdog::sltHandleHostScreenAvailableGeometryCalculated: Screen 0 work area is actually resized to: 0x0 x 1920x1039
00:00:00.756009 GUI: UIMediumEnumerator: Medium-enumeration finished!
00:12:01.844832 GUI: UIMediumEnumerator: Medium-enumeration finished!
00:12:30.210450 GUI: UIMediumEnumerator: Medium with key={{82501175-eab3-4417-b482-e5835c699573}} created
00:12:30.332779 GUI: UIMediumEnumerator: Medium-enumeration finished!
00:12:55.753157 GUI: UIMediumEnumerator: Medium-enumeration finished!
00:12:58.398361 GUI: UIMediumEnumerator: Medium-enumeration finished!
00:12:58.428163 GUI: UIMediumEnumerator: Medium-enumeration finished!
00:15:45.672896 GUI: UIMediumEnumerator: Medium-enumeration finished!
00:15:46.414442 GUI: UIMediumEnumerator: Medium-enumeration finished!
00:15:46.428558 GUI: UIMediumEnumerator: Medium-enumeration finished!
