00:00:00.328340 VirtualBox GUI VM Selector Window 6.1.30 r148432 linux.amd64 (Nov 22 2021 19:44:56) release log
00:00:00.328343 Log opened 2021-12-08T16:54:37.607297000Z
00:00:00.328344 Build Type: release
00:00:00.328346 OS Product: Linux
00:00:00.328348 OS Release: 5.10.83-1-lts
00:00:00.328350 OS Version: #1 SMP Wed, 01 Dec 2021 12:35:24 +0000
00:00:00.328366 DMI Product Name: 20T8000LCK
00:00:00.328370 DMI Product Version: ThinkPad E15 Gen 2
00:00:00.328374 Firmware type: UEFI
00:00:00.328599 Secure Boot: Disabled
00:00:00.328627 Host RAM: 7233MB (7.0GB) total, 6278MB (6.1GB) available
00:00:00.328629 Executable: /usr/lib/virtualbox/VirtualBox
00:00:00.328631 Process ID: 1190
00:00:00.328632 Package type: LINUX_64BITS_GENERIC (OSE)
00:00:00.328650 Qt version: 5.15.2
00:00:00.356755 GUI: UIMediumEnumerator: Medium-enumeration started...
00:00:00.723641 GUI: UIDesktopWidgetWatchdog::sltHandleHostScreenAvailableGeometryCalculated: Screen 0 work area is actually resized to: 0x0 x 1920x1049
00:00:00.951130 GUI: UIMediumEnumerator: Medium-enumeration finished!
00:00:44.855748 GUI: UIMediumEnumerator: Medium-enumeration finished!
00:00:44.905309 GUI: UIMediumEnumerator: Medium-enumeration finished!
00:01:00.368756 GUI: UIMediumEnumerator: Medium-enumeration finished!
00:01:11.016045 GUI: UIMediumEnumerator: Medium-enumeration finished!
00:01:17.615287 GUI: UIMediumEnumerator: Medium-enumeration finished!
00:01:17.643351 GUI: UIMediumEnumerator: Medium-enumeration finished!
00:26:23.686317 GUI: UIMediumEnumerator: Medium-enumeration finished!
00:26:24.351158 GUI: UIMediumEnumerator: Medium-enumeration finished!
00:26:24.372348 GUI: UIMediumEnumerator: Medium-enumeration finished!
00:26:34.212247 GUI: UIMediumEnumerator: Medium-enumeration finished!
00:26:34.222114 GUI: UIMediumEnumerator: Medium-enumeration finished!
00:28:33.767163 GUI: UIMediumEnumerator: Medium-enumeration finished!
