00:00:00.308853 VirtualBox GUI VM Selector Window 6.1.30 r148432 linux.amd64 (Nov 22 2021 19:44:56) release log
00:00:00.308857 Log opened 2021-12-10T18:51:07.320774000Z
00:00:00.308869 Build Type: release
00:00:00.308872 OS Product: Linux
00:00:00.308874 OS Release: 5.10.83-1-lts
00:00:00.308876 OS Version: #1 SMP Wed, 01 Dec 2021 12:35:24 +0000
00:00:00.308898 DMI Product Name: 20T8000LCK
00:00:00.308906 DMI Product Version: ThinkPad E15 Gen 2
00:00:00.308912 Firmware type: UEFI
00:00:00.309120 Secure Boot: Disabled
00:00:00.309163 Host RAM: 7233MB (7.0GB) total, 5264MB (5.1GB) available
00:00:00.309167 Executable: /usr/lib/virtualbox/VirtualBox
00:00:00.309169 Process ID: 4192
00:00:00.309170 Package type: LINUX_64BITS_GENERIC (OSE)
00:00:00.309199 Qt version: 5.15.2
00:00:00.342109 GUI: UIMediumEnumerator: Medium-enumeration started...
00:00:00.706345 GUI: UIDesktopWidgetWatchdog::sltHandleHostScreenAvailableGeometryCalculated: Screen 0 work area is actually resized to: 0x0 x 1920x1049
00:00:00.729488 GUI: UIMediumEnumerator: Medium-enumeration finished!
00:01:57.092861 GUI: UIMediumEnumerator: Medium with key={{b1d479a0-73bd-4b6f-bf9a-4a21f4f26e6a}} created
00:01:57.196991 GUI: UIMediumEnumerator: Medium-enumeration finished!
00:03:04.972534 GUI: UIMediumEnumerator: Medium-enumeration finished!
00:03:05.046700 GUI: UIMediumEnumerator: Medium-enumeration finished!
00:03:22.033069 GUI: UIMediumEnumerator: Medium-enumeration finished!
00:03:26.170627 GUI: UIMediumEnumerator: Medium-enumeration finished!
00:03:26.891545 GUI: UIMediumEnumerator: Medium-enumeration finished!
00:03:34.609425 GUI: UIMediumEnumerator: Medium-enumeration finished!
00:34:50.609710 GUI: UIMediumEnumerator: Medium-enumeration finished!
00:35:09.136365 GUI: UIMediumEnumerator: Medium-enumeration finished!
00:35:09.144631 GUI: UIMediumEnumerator: Medium-enumeration finished!
01:18:32.145549 GUI: UIMediumEnumerator: Medium-enumeration finished!
01:18:32.145585 Log rotated - Log started 2021-12-10T18:51:07.320774000Z
