00:00:00.298713 VirtualBox GUI VM Selector Window 6.1.30 r148432 linux.amd64 (Nov 22 2021 19:44:56) release log
00:00:00.298716 Log opened 2021-12-06T19:32:07.852587000Z
00:00:00.298717 Build Type: release
00:00:00.298719 OS Product: Linux
00:00:00.298721 OS Release: 5.10.83-1-lts
00:00:00.298723 OS Version: #1 SMP Wed, 01 Dec 2021 12:35:24 +0000
00:00:00.298739 DMI Product Name: 20T8000LCK
00:00:00.298744 DMI Product Version: ThinkPad E15 Gen 2
00:00:00.298747 Firmware type: UEFI
00:00:00.298965 Secure Boot: Disabled
00:00:00.298993 Host RAM: 7233MB (7.0GB) total, 4885MB (4.7GB) available
00:00:00.298996 Executable: /usr/lib/virtualbox/VirtualBox
00:00:00.298997 Process ID: 15501
00:00:00.298998 Package type: LINUX_64BITS_GENERIC (OSE)
00:00:00.299020 Qt version: 5.15.2
00:00:00.340222 GUI: UIMediumEnumerator: Medium-enumeration started...
00:00:00.668248 GUI: UIDesktopWidgetWatchdog::sltHandleHostScreenAvailableGeometryCalculated: Screen 0 work area is actually resized to: 0x0 x 1920x1049
00:00:00.699794 GUI: UIMediumEnumerator: Medium-enumeration finished!
00:00:08.690842 GUI: UIMediumEnumerator: Medium-enumeration finished!
