00:00:00.377687 VirtualBox GUI VM Selector Window 6.1.30 r148432 linux.amd64 (Nov 22 2021 19:44:56) release log
00:00:00.377691 Log opened 2021-12-07T18:05:36.970246000Z
00:00:00.377692 Build Type: release
00:00:00.377696 OS Product: Linux
00:00:00.377697 OS Release: 5.10.83-1-lts
00:00:00.377699 OS Version: #1 SMP Wed, 01 Dec 2021 12:35:24 +0000
00:00:00.377752 DMI Product Name: 20T8000LCK
00:00:00.377759 DMI Product Version: ThinkPad E15 Gen 2
00:00:00.377765 Firmware type: UEFI
00:00:00.378070 Secure Boot: Disabled
00:00:00.378167 Host RAM: 7233MB (7.0GB) total, 5295MB (5.1GB) available
00:00:00.378172 Executable: /usr/lib/virtualbox/VirtualBox
00:00:00.378173 Process ID: 4443
00:00:00.378174 Package type: LINUX_64BITS_GENERIC (OSE)
00:00:00.378237 Qt version: 5.15.2
00:00:00.417513 GUI: UIMediumEnumerator: Medium-enumeration started...
00:00:00.809884 GUI: UIDesktopWidgetWatchdog::sltHandleHostScreenAvailableGeometryCalculated: Screen 0 work area is actually resized to: 0x0 x 1920x1049
00:00:00.836363 GUI: UIMediumEnumerator: Medium-enumeration finished!
00:07:04.308067 GUI: UIMediumEnumerator: Medium-enumeration finished!
00:08:18.619731 GUI: UIMediumEnumerator: Medium-enumeration finished!
00:08:24.373126 GUI: UIMediumEnumerator: Medium-enumeration finished!
00:08:24.399215 GUI: UIMediumEnumerator: Medium-enumeration finished!
00:08:24.446921 GUI: UIMediumEnumerator: Medium-enumeration finished!
00:08:24.465007 GUI: UIMediumEnumerator: Medium-enumeration finished!
00:08:24.534029 GUI: UIMediumEnumerator: Medium-enumeration finished!
00:08:24.586368 GUI: UIMediumEnumerator: Medium-enumeration finished!
00:08:24.645232 GUI: UIMediumEnumerator: Medium-enumeration finished!
00:08:24.737002 GUI: UIMediumEnumerator: Medium-enumeration finished!
00:08:24.784951 GUI: UIMediumEnumerator: Medium-enumeration finished!
00:08:24.840857 GUI: UIMediumEnumerator: Medium-enumeration finished!
00:08:24.890083 GUI: UIMediumEnumerator: Medium-enumeration finished!
00:08:24.940396 GUI: UIMediumEnumerator: Medium-enumeration finished!
00:08:26.090814 GUI: UIMediumEnumerator: Medium-enumeration finished!
00:08:51.364299 GUI: UIMediumEnumerator: Medium-enumeration finished!
00:09:22.243283 GUI: UIMediumEnumerator: Medium-enumeration finished!
00:09:33.610582 GUI: UIMediumEnumerator: Medium-enumeration finished!
00:11:53.356755 GUI: UIMediumEnumerator: Medium-enumeration finished!
