00:00:00.000201 main     VirtualBox XPCOM Server 6.1.30 r148432 linux.amd64 (Nov 22 2021 19:44:56) release log
00:00:00.000204 main     Log opened 2021-12-06T19:32:07.677549000Z
00:00:00.000205 main     Build Type: release
00:00:00.000208 main     OS Product: Linux
00:00:00.000209 main     OS Release: 5.10.83-1-lts
00:00:00.000211 main     OS Version: #1 SMP Wed, 01 Dec 2021 12:35:24 +0000
00:00:00.000231 main     DMI Product Name: 20T8000LCK
00:00:00.000238 main     DMI Product Version: ThinkPad E15 Gen 2
00:00:00.000242 main     Firmware type: UEFI
00:00:00.000866 main     Secure Boot: Disabled
00:00:00.000931 main     Host RAM: 7233MB (7.0GB) total, 4887MB (4.7GB) available
00:00:00.000936 main     Executable: /usr/lib/virtualbox/VBoxSVC
00:00:00.000939 main     Process ID: 15531
00:00:00.000940 main     Package type: LINUX_64BITS_GENERIC (OSE)
00:00:00.002436 main     IPC socket path: /tmp/.vbox-archyve-ipc/ipcd
00:00:00.107044 nspr-2   VirtualBox: object creation starts
00:00:00.107147 nspr-2   Home directory: '/home/archyve/.config/VirtualBox'
00:00:00.108690 nspr-2   Loading settings file "/home/archyve/.config/VirtualBox/VirtualBox.xml" with version "1.12-linux"
00:00:00.123068 nspr-2   NetIfAdpCtlOut: VBoxNetAdpCtl: Error while retrieving link speed for wlp3s0: VBoxNetAdpCtl: ioctl failed: Operation not supported
00:00:00.123572 nspr-2   HostDnsMonitor: initializing
00:00:00.123770 nspr-2   NAT: resolv.conf: nameserver 192.168.0.1
00:00:00.123778 nspr-2   NAT: resolv.conf: nameserver 8.8.8.8
00:00:00.123782 nspr-2   NAT: resolv.conf: nameserver 8.8.4.4
00:00:00.123787 nspr-2   NAT: resolv.conf: too many nameserver lines, ignoring 1.1.1.1
00:00:00.123790 nspr-2   NAT: resolv.conf: too many nameserver lines, ignoring 2a02:8301:0:22:a::53
00:00:00.123793 nspr-2   NAT: resolv.conf: too many nameserver lines, ignoring 2a02:8301:0:22:b::53
00:00:00.123800 nspr-2   HostDnsMonitor: updating information
00:00:00.123812 nspr-2   HostDnsMonitor: old information
00:00:00.123816 nspr-2     no server entries
00:00:00.123819 nspr-2     no domain set
00:00:00.123822 nspr-2     no search string entries
00:00:00.123826 nspr-2   HostDnsMonitor: new information
00:00:00.123829 nspr-2     server 1: 192.168.0.1
00:00:00.123832 nspr-2     server 2: 8.8.8.8
00:00:00.123836 nspr-2     server 3: 8.8.4.4
00:00:00.123839 nspr-2     domain: home
00:00:00.123842 nspr-2     search string 1: home
00:00:00.125750 nspr-2   VD: VDInit finished with VINF_SUCCESS
00:00:00.125820 nspr-2   ERROR [COM]: aRC=NS_ERROR_FAILURE (0x80004005) aIID={027bc463-929c-40e8-bf16-fea557cd8e7e} aComponent={SystemPropertiesWrap} aText={Cannot determine default Guest Additions ISO location. Most likely they are not available}, preserve=false aResultDetail=0
00:00:00.130838 nspr-2   Loading settings file "/home/archyve/VirtualBox VMs/win10/win10.vbox" with version "1.15-linux"
00:00:00.131927 nspr-2   Loading settings file "/home/archyve/VirtualBox VMs/debian/debian.vbox" with version "1.16-linux"
00:00:00.132445 nspr-2   Loading settings file "/home/archyve/VirtualBox VMs/fedoraj/fedoraj.vbox" with version "1.16-linux"
00:00:00.132925 nspr-2   Loading settings file "/home/archyve/VirtualBox VMs/debian unstable/debian unstable.vbox" with version "1.16-linux"
00:00:00.133354 nspr-2   Loading settings file "/home/archyve/VirtualBox VMs/redstar/redstar.vbox" with version "1.16-linux"
00:00:00.133767 nspr-2   Loading settings file "/home/archyve/VirtualBox VMs/arch/arch.vbox" with version "1.16-linux"
00:00:00.134171 nspr-2   Loading settings file "/home/archyve/VirtualBox VMs/Kali-Linux-2021.2-virtualbox-amd64/Kali-Linux-2021.2-virtualbox-amd64.vbox" with version "1.17-linux"
00:00:00.134886 nspr-2   VirtualBox: object created
00:00:00.618240 nspr-3   WARNING [COM]: aRC=NS_ERROR_FAILURE (0x80004005) aIID={16ced992-5fdc-4aba-aff5-6a39bbd7c38b} aComponent={HostWrap} aText={VirtualBox is not currently allowed to access USB devices.  You can change this by adding your user to the 'vboxusers' group.  Please see the user manual for a more detailed explanation}, preserve=true  aResultDetail=0
00:00:00.800498 nspr-4   WARNING [COM]: aRC=NS_ERROR_FAILURE (0x80004005) aIID={16ced992-5fdc-4aba-aff5-6a39bbd7c38b} aComponent={HostWrap} aText={VirtualBox is not currently allowed to access USB devices.  You can change this by adding your user to the 'vboxusers' group.  Please see the user manual for a more detailed explanation}, preserve=true  aResultDetail=0
00:00:00.801533 nspr-4   WARNING [COM]: aRC=NS_ERROR_FAILURE (0x80004005) aIID={16ced992-5fdc-4aba-aff5-6a39bbd7c38b} aComponent={HostWrap} aText={VirtualBox is not currently allowed to access USB devices.  You can change this by adding your user to the 'vboxusers' group.  Please see the user manual for a more detailed explanation}, preserve=true  aResultDetail=0
00:00:02.681181 nspr-3   WARNING [COM]: aRC=NS_ERROR_FAILURE (0x80004005) aIID={16ced992-5fdc-4aba-aff5-6a39bbd7c38b} aComponent={HostWrap} aText={VirtualBox is not currently allowed to access USB devices.  You can change this by adding your user to the 'vboxusers' group.  Please see the user manual for a more detailed explanation}, preserve=true  aResultDetail=0
00:00:02.748600 nspr-3   WARNING [COM]: aRC=NS_ERROR_FAILURE (0x80004005) aIID={16ced992-5fdc-4aba-aff5-6a39bbd7c38b} aComponent={HostWrap} aText={VirtualBox is not currently allowed to access USB devices.  You can change this by adding your user to the 'vboxusers' group.  Please see the user manual for a more detailed explanation}, preserve=true  aResultDetail=0
00:00:02.749428 nspr-3   WARNING [COM]: aRC=NS_ERROR_FAILURE (0x80004005) aIID={16ced992-5fdc-4aba-aff5-6a39bbd7c38b} aComponent={HostWrap} aText={VirtualBox is not currently allowed to access USB devices.  You can change this by adding your user to the 'vboxusers' group.  Please see the user manual for a more detailed explanation}, preserve=true  aResultDetail=0
00:00:03.582400 nspr-2   WARNING [COM]: aRC=NS_ERROR_FAILURE (0x80004005) aIID={16ced992-5fdc-4aba-aff5-6a39bbd7c38b} aComponent={HostWrap} aText={VirtualBox is not currently allowed to access USB devices.  You can change this by adding your user to the 'vboxusers' group.  Please see the user manual for a more detailed explanation}, preserve=true  aResultDetail=0
00:00:04.061269 nspr-4   NetIfAdpCtlOut: VBoxNetAdpCtl: Error while retrieving link speed for wlp3s0: VBoxNetAdpCtl: ioctl failed: Operation not supported
00:00:04.072773 nspr-4   NetIfAdpCtlOut: VBoxNetAdpCtl: Error while retrieving link speed for wlp3s0: VBoxNetAdpCtl: ioctl failed: Operation not supported
00:00:04.088571 nspr-2   WARNING [COM]: aRC=NS_ERROR_FAILURE (0x80004005) aIID={16ced992-5fdc-4aba-aff5-6a39bbd7c38b} aComponent={HostWrap} aText={VirtualBox is not currently allowed to access USB devices.  You can change this by adding your user to the 'vboxusers' group.  Please see the user manual for a more detailed explanation}, preserve=true  aResultDetail=0
00:00:04.088960 nspr-4   WARNING [COM]: aRC=NS_ERROR_FAILURE (0x80004005) aIID={16ced992-5fdc-4aba-aff5-6a39bbd7c38b} aComponent={HostWrap} aText={VirtualBox is not currently allowed to access USB devices.  You can change this by adding your user to the 'vboxusers' group.  Please see the user manual for a more detailed explanation}, preserve=true  aResultDetail=0
00:00:04.214320 nspr-2   WARNING [COM]: aRC=NS_ERROR_FAILURE (0x80004005) aIID={16ced992-5fdc-4aba-aff5-6a39bbd7c38b} aComponent={HostWrap} aText={VirtualBox is not currently allowed to access USB devices.  You can change this by adding your user to the 'vboxusers' group.  Please see the user manual for a more detailed explanation}, preserve=true  aResultDetail=0
00:00:04.215111 nspr-2   WARNING [COM]: aRC=NS_ERROR_FAILURE (0x80004005) aIID={16ced992-5fdc-4aba-aff5-6a39bbd7c38b} aComponent={HostWrap} aText={VirtualBox is not currently allowed to access USB devices.  You can change this by adding your user to the 'vboxusers' group.  Please see the user manual for a more detailed explanation}, preserve=true  aResultDetail=0
00:00:08.520416 nspr-3   WARNING [COM]: aRC=NS_ERROR_FAILURE (0x80004005) aIID={16ced992-5fdc-4aba-aff5-6a39bbd7c38b} aComponent={HostWrap} aText={VirtualBox is not currently allowed to access USB devices.  You can change this by adding your user to the 'vboxusers' group.  Please see the user manual for a more detailed explanation}, preserve=true  aResultDetail=0
00:00:08.520774 nspr-3   Saving settings file "/home/archyve/VirtualBox VMs/Kali-Linux-2021.2-virtualbox-amd64/Kali-Linux-2021.2-virtualbox-amd64.vbox" with version "1.17-linux"
00:00:08.592431 nspr-3   WARNING [COM]: aRC=NS_ERROR_FAILURE (0x80004005) aIID={16ced992-5fdc-4aba-aff5-6a39bbd7c38b} aComponent={HostWrap} aText={VirtualBox is not currently allowed to access USB devices.  You can change this by adding your user to the 'vboxusers' group.  Please see the user manual for a more detailed explanation}, preserve=true  aResultDetail=0
00:00:08.593539 nspr-3   WARNING [COM]: aRC=NS_ERROR_FAILURE (0x80004005) aIID={16ced992-5fdc-4aba-aff5-6a39bbd7c38b} aComponent={HostWrap} aText={VirtualBox is not currently allowed to access USB devices.  You can change this by adding your user to the 'vboxusers' group.  Please see the user manual for a more detailed explanation}, preserve=true  aResultDetail=0
00:00:09.746664 nspr-3   Saving settings file "/home/archyve/.config/VirtualBox/VirtualBox.xml" with version "1.12-linux"
00:00:09.756225 nspr-3   Saving settings file "/home/archyve/.config/VirtualBox/VirtualBox.xml" with version "1.12-linux"
00:00:09.762133 nspr-2   Saving settings file "/home/archyve/.config/VirtualBox/VirtualBox.xml" with version "1.12-linux"
00:00:15.274241 main     VirtualBox: object deletion starts
00:00:15.274401 main     ERROR [COM]: aRC=VBOX_E_OBJECT_IN_USE (0x80bb000c) aIID={ad47ad09-787b-44ab-b343-a082a3f2dfb1} aComponent={MediumWrap} aText={Medium '/home/archyve/VirtualBox VMs/win10/win10.vdi' cannot be closed because it is still attached to 1 virtual machines}, preserve=false aResultDetail=0
00:00:15.274756 main     ERROR [COM]: aRC=VBOX_E_OBJECT_IN_USE (0x80bb000c) aIID={ad47ad09-787b-44ab-b343-a082a3f2dfb1} aComponent={MediumWrap} aText={Medium '/home/archyve/VirtualBox VMs/debian/debian.vdi' cannot be closed because it is still attached to 1 virtual machines}, preserve=false aResultDetail=0
00:00:15.275010 main     ERROR [COM]: aRC=VBOX_E_OBJECT_IN_USE (0x80bb000c) aIID={ad47ad09-787b-44ab-b343-a082a3f2dfb1} aComponent={MediumWrap} aText={Medium '/home/archyve/VirtualBox VMs/fedoraj/fedoraj.vdi' cannot be closed because it is still attached to 1 virtual machines}, preserve=false aResultDetail=0
00:00:15.275165 main     ERROR [COM]: aRC=VBOX_E_OBJECT_IN_USE (0x80bb000c) aIID={ad47ad09-787b-44ab-b343-a082a3f2dfb1} aComponent={MediumWrap} aText={Medium '/home/archyve/VirtualBox VMs/debian unstable/debian unstable.vdi' cannot be closed because it is still attached to 1 virtual machines}, preserve=false aResultDetail=0
00:00:15.275291 main     ERROR [COM]: aRC=VBOX_E_OBJECT_IN_USE (0x80bb000c) aIID={ad47ad09-787b-44ab-b343-a082a3f2dfb1} aComponent={MediumWrap} aText={Medium '/home/archyve/VirtualBox VMs/redstar/redstar.vdi' cannot be closed because it is still attached to 1 virtual machines}, preserve=false aResultDetail=0
00:00:15.275376 main     ERROR [COM]: aRC=VBOX_E_OBJECT_IN_USE (0x80bb000c) aIID={ad47ad09-787b-44ab-b343-a082a3f2dfb1} aComponent={MediumWrap} aText={Medium '/home/archyve/VirtualBox VMs/arch/arch.vdi' cannot be closed because it is still attached to 1 virtual machines}, preserve=false aResultDetail=0
00:00:15.275465 main     ERROR [COM]: aRC=VBOX_E_OBJECT_IN_USE (0x80bb000c) aIID={ad47ad09-787b-44ab-b343-a082a3f2dfb1} aComponent={MediumWrap} aText={Medium '/home/archyve/VirtualBox VMs/Kali-Linux-2021.2-virtualbox-amd64/Kali-Linux-2021.2-virtualbox-amd64-disk001.vdi' cannot be closed because it is still attached to 1 virtual machines}, preserve=false aResultDetail=0
00:00:15.275758 main     HostDnsMonitor: shutting down ...
00:00:15.308305 main     HostDnsMonitor: shut down
00:00:15.528407 Watcher  ERROR [COM]: aRC=E_ACCESSDENIED (0x80070005) aIID={d0a0163f-e254-4e5b-a1f2-011cf991c38d} aComponent={VirtualBoxWrap} aText={The object is not ready}, preserve=false aResultDetail=0
00:00:20.308457 main     {00007fe34c019090} HostPowerServiceLinux::~HostPowerServiceLinux: RTThreadWait() for 5000 ms failed with VERR_TIMEOUT
00:00:20.308987 main     VirtualBox: object deleted
